{
  "log" : {
    "version" : "1.2",
    "pages" : [ ],
    "entries" : [ {
      "startedDateTime" : "2022-07-15T18:00:54.055Z",
      "request" : {
        "method" : "GET",
        "url" : "http://ec2-34-219-136-154.us-west-2.compute.amazonaws.com/restapi/v1/class/1/10",
        "httpVersion" : "",
        "cookies" : [ ],
        "headers" : [ {
          "name" : "Content-Type",
          "value" : "application/json"
        }, {
          "name" : "Authorization",
          "value" : "Bearer eyJhbGciOiJIUzI1NiJ9.eyJyb2xlcyI6W3siYXV0aG9yaXR5IjoiVVNFUiJ9XSwiZXhwIjoxNjYwNDkwNTUwLCJ1c2VySWQiOiJiZGFiZWU1MC0zMjllLTQ4NzUtYjk0MS1kOWNhMmRhYWM4ZTUiLCJpYXQiOjE2NTc4OTg1NTB9.m8xm5ZhPzV3MdxeAw8SS4CAB4htAweTIW6pGpYH56jc"
        } ],
        "queryString" : [ ],
        "postData" : {
          "mimeType" : "application/json",
          "text" : "{\n  \"classCode\": \"edfe061679\",\n  \"userId\": \"bdabee50-329e-4875-b941-d9ca2daac8e5\"\n}",
          "comment" : ""
        },
        "headersSize" : 0,
        "bodySize" : 0,
        "comment" : ""
      },
      "response" : {
        "status" : 200,
        "statusText" : "",
        "httpVersion" : "",
        "cookies" : [ ],
        "headers" : [ {
          "name" : "Transfer-Encoding",
          "value" : "chunked"
        }, {
          "name" : "Keep-Alive",
          "value" : "timeout=60"
        }, {
          "name" : "X-Content-Type-Options",
          "value" : "nosniff"
        }, {
          "name" : "Connection",
          "value" : "keep-alive"
        }, {
          "name" : "Pragma",
          "value" : "no-cache"
        }, {
          "name" : "Date",
          "value" : "Fri, 15 Jul 2022 18:00:53 GMT"
        }, {
          "name" : "X-Frame-Options",
          "value" : "DENY"
        }, {
          "name" : "Cache-Control",
          "value" : "no-cache, no-store, max-age=0, must-revalidate"
        }, {
          "name" : "Vary",
          "value" : "Origin"
        }, {
          "name" : "Vary",
          "value" : "Access-Control-Request-Method"
        }, {
          "name" : "Vary",
          "value" : "Access-Control-Request-Headers"
        }, {
          "name" : "Expires",
          "value" : "0"
        }, {
          "name" : "#status#",
          "value" : "HTTP/1.1 200 "
        }, {
          "name" : "X-XSS-Protection",
          "value" : "1; mode=block"
        }, {
          "name" : "Content-Type",
          "value" : "application/json"
        } ],
        "content" : {
          "size" : 14631,
          "mimeType" : "application/json",
          "text" : "{\"errors\":null,\"status\":true,\"data\":{\"data\":[{\"id\":\"5d1f93ec-1c65-480f-b27a-417e3c08905b\",\"createdAt\":[2022,7,6,11,25,3,132236000],\"createdBy\":\"admin@gmail.com\",\"updatedAt\":null,\"updatedBy\":null,\"isDeleted\":false,\"name\":\"Belajar makan\",\"room\":\"\",\"reportUrl\":null,\"code\":\"658bd71e33\",\"status\":\"ACTIVE\",\"users\":[{\"id\":\"a7661231-2e65-4a8d-95ad-6e5313dc5c5e\",\"createdAt\":[2022,7,6,11,23,13,434694000],\"createdBy\":\"anonymousUser\",\"updatedAt\":null,\"updatedBy\":null,\"isDeleted\":false,\"fullName\":\"admin\",\"email\":\"admin@gmail.com\",\"password\":\"$2a$10$LELtzP23pPcJoUfurs/ZqOThJeQyz4cVu57cL/ByL5xxu.pNBvE5i\",\"telepon\":\"\",\"roles\":[{\"id\":\"ac3939a1-34f1-4507-8a80-aeca04629d48\",\"createdAt\":[2022,7,4,10,6,6,243744000],\"createdBy\":\"anonymousUser\",\"updatedAt\":null,\"updatedBy\":null,\"isDeleted\":false,\"name\":\"user\",\"description\":\"-\"}],\"enabled\":true,\"authorities\":[{\"authority\":\"USER\"}],\"username\":\"admin@gmail.com\",\"accountNonExpired\":true,\"accountNonLocked\":true,\"credentialsNonExpired\":true}]},{\"id\":\"c7579d39-99de-4c02-9a6e-062955dc3ac4\",\"createdAt\":[2022,7,4,12,8,6,482937000],\"createdBy\":\"dan@gmail.com\",\"updatedAt\":[2022,7,6,13,1,53,438000],\"updatedBy\":\"irdhaislakhuafa@gmail.com\",\"isDeleted\":false,\"name\":\"Presentasi\",\"room\":\"\",\"reportUrl\":null,\"code\":\"f71513fa5d\",\"status\":\"ACTIVE\",\"users\":[{\"id\":\"38ff5b8f-59a4-45b8-8011-8b58612009aa\",\"createdAt\":[2022,7,4,10,6,6,280798000],\"createdBy\":\"anonymousUser\",\"updatedAt\":null,\"updatedBy\":null,\"isDeleted\":false,\"fullName\":\"Irda Islakhu Afa\",\"email\":\"irdhaislakhuafa@gmail.com\",\"password\":\"$2a$10$8UFTokCCkN5rexeHA9DTNuzAS1XmfbKlT1t2USxxoNy6VwbCLoeqm\",\"telepon\":\"\",\"roles\":[{\"id\":\"ac3939a1-34f1-4507-8a80-aeca04629d48\",\"createdAt\":[2022,7,4,10,6,6,243744000],\"createdBy\":\"anonymousUser\",\"updatedAt\":null,\"updatedBy\":null,\"isDeleted\":false,\"name\":\"user\",\"description\":\"-\"}],\"enabled\":true,\"authorities\":[{\"authority\":\"USER\"}],\"username\":\"irdhaislakhuafa@gmail.com\",\"accountNonExpired\":true,\"accountNonLocked\":true,\"credentialsNonExpired\":true},{\"id\":\"4e1c98ea-ae75-4ece-a6ac-c697b38673b2\",\"createdAt\":[2022,7,4,11,51,8,895342000],\"createdBy\":\"anonymousUser\",\"updatedAt\":null,\"updatedBy\":null,\"isDeleted\":false,\"fullName\":\"Yardan\",\"email\":\"dan@gmail.com\",\"password\":\"$2a$10$SVnSMpbiIbLxUI4keLXPteGYbsJxLqChMDUKMcbBJ76zN2zTSn2ea\",\"telepon\":\"\",\"roles\":[{\"id\":\"ac3939a1-34f1-4507-8a80-aeca04629d48\",\"createdAt\":[2022,7,4,10,6,6,243744000],\"createdBy\":\"anonymousUser\",\"updatedAt\":null,\"updatedBy\":null,\"isDeleted\":false,\"name\":\"user\",\"description\":\"-\"}],\"enabled\":true,\"authorities\":[{\"authority\":\"USER\"}],\"username\":\"dan@gmail.com\",\"accountNonExpired\":true,\"accountNonLocked\":true,\"credentialsNonExpired\":true},{\"id\":\"a4925049-03d2-4eb2-a9df-6e227ac56c73\",\"createdAt\":[2022,7,4,12,14,55,770961000],\"createdBy\":\"anonymousUser\",\"updatedAt\":null,\"updatedBy\":null,\"isDeleted\":false,\"fullName\":\"Ferri\",\"email\":\"ferri@gmailcom\",\"password\":\"$2a$10$1FRfgkmV0OGsWwDOTQZfjOvccYkvUNueCo5VKLKafhxCn8T9DUsdW\",\"telepon\":\"\",\"roles\":[{\"id\":\"ac3939a1-34f1-4507-8a80-aeca04629d48\",\"createdAt\":[2022,7,4,10,6,6,243744000],\"createdBy\":\"anonymousUser\",\"updatedAt\":null,\"updatedBy\":null,\"isDeleted\":false,\"name\":\"user\",\"description\":\"-\"}],\"enabled\":true,\"authorities\":[{\"authority\":\"USER\"}],\"username\":\"ferri@gmailcom\",\"accountNonExpired\":true,\"accountNonLocked\":true,\"credentialsNonExpired\":true}]},{\"id\":\"9ec10b9f-8544-4644-bc23-6c6f23bdff19\",\"createdAt\":[2022,7,9,3,40,36,61929000],\"createdBy\":\"archen@gmail.com\",\"updatedAt\":[2022,7,14,15,8,34,513313000],\"updatedBy\":\"joong@gmail.com\",\"isDeleted\":false,\"name\":\"Class - 1\",\"room\":\"\",\"reportUrl\":null,\"code\":\"a16218a466\",\"status\":\"ACTIVE\",\"users\":[{\"id\":\"bdabee50-329e-4875-b941-d9ca2daac8e5\",\"createdAt\":[2022,7,4,11,54,6,233786000],\"createdBy\":\"anonymousUser\",\"updatedAt\":[2022,7,14,5,44,25,337403000],\"updatedBy\":\"archen\",\"isDeleted\":false,\"fullName\":\"Archie\",\"email\":\"archen@gmail.com\",\"password\":\"$2a$10$d7PxqbU1XBIU57V9eiCJNuYkoHj9NT836lK/5x5HlQc1ToDHVrtkm\",\"telepon\":\"0811233449433\",\"roles\":[{\"id\":\"ac3939a1-34f1-4507-8a80-aeca04629d48\",\"createdAt\":[2022,7,4,10,6,6,243744000],\"createdBy\":\"anonymousUser\",\"updatedAt\":null,\"updatedBy\":null,\"isDeleted\":false,\"name\":\"user\",\"description\":\"-\"}],\"enabled\":true,\"authorities\":[{\"authority\":\"USER\"}],\"username\":\"archen@gmail.com\",\"accountNonExpired\":true,\"accountNonLocked\":true,\"credentialsNonExpired\":true},{\"id\":\"c67b7aa4-07f4-46ba-a040-24cff341129e\",\"createdAt\":[2022,7,14,10,26,6,81802000],\"createdBy\":\"anonymousUser\",\"updatedAt\":[2022,7,15,13,48,18,476665000],\"updatedBy\":\"joong@gmail.com\",\"isDeleted\":false,\"fullName\":\"Joong\",\"email\":\"joongs@gmail.com\",\"password\":\"$2a$10$y5zhmAt.TGK9Go/5/xGCv.rAxU2wQGxuDd.Sd48NV8JSX1bsxySfu\",\"telepon\":\"081234562377\",\"roles\":[{\"id\":\"ac3939a1-34f1-4507-8a80-aeca04629d48\",\"createdAt\":[2022,7,4,10,6,6,243744000],\"createdBy\":\"anonymousUser\",\"updatedAt\":null,\"updatedBy\":null,\"isDeleted\":false,\"name\":\"user\",\"description\":\"-\"}],\"enabled\":true,\"authorities\":[{\"authority\":\"USER\"}],\"username\":\"joongs@gmail.com\",\"accountNonExpired\":true,\"accountNonLocked\":true,\"credentialsNonExpired\":true}]},{\"id\":\"d2fecd79-b2b4-42b2-9b75-7e5e1bf79972\",\"createdAt\":[2022,7,5,3,23,42,155952000],\"createdBy\":\"ferri@gmailcom\",\"updatedAt\":[2022,7,7,1,23,4,771525000],\"updatedBy\":\"dan@gmail.com\",\"isDeleted\":false,\"name\":\"Bukan kelas\",\"room\":\"\",\"reportUrl\":null,\"code\":\"1a0a295665\",\"status\":\"ACTIVE\",\"users\":[{\"id\":\"a4925049-03d2-4eb2-a9df-6e227ac56c73\",\"createdAt\":[2022,7,4,12,14,55,770961000],\"createdBy\":\"anonymousUser\",\"updatedAt\":null,\"updatedBy\":null,\"isDeleted\":false,\"fullName\":\"Ferri\",\"email\":\"ferri@gmailcom\",\"password\":\"$2a$10$1FRfgkmV0OGsWwDOTQZfjOvccYkvUNueCo5VKLKafhxCn8T9DUsdW\",\"telepon\":\"\",\"roles\":[{\"id\":\"ac3939a1-34f1-4507-8a80-aeca04629d48\",\"createdAt\":[2022,7,4,10,6,6,243744000],\"createdBy\":\"anonymousUser\",\"updatedAt\":null,\"updatedBy\":null,\"isDeleted\":false,\"name\":\"user\",\"description\":\"-\"}],\"enabled\":true,\"authorities\":[{\"authority\":\"USER\"}],\"username\":\"ferri@gmailcom\",\"accountNonExpired\":true,\"accountNonLocked\":true,\"credentialsNonExpired\":true},{\"id\":\"aa0d83b3-9c0a-44f3-bac9-0e22fd5203c0\",\"createdAt\":[2022,7,5,3,24,31,998941000],\"createdBy\":\"anonymousUser\",\"updatedAt\":[2022,7,15,12,48,8,238325000],\"updatedBy\":\"anakbaik@gmail.com\",\"isDeleted\":false,\"fullName\":\"Ferri\",\"email\":\"anakbaik@gmail.com\",\"password\":\"$2a$10$RxhDnNPlVYjIcvHZsKtpoeoGV3uHwkhKft9WazkQcwDvrI.4HRD/6\",\"telepon\":\"081234567812\",\"roles\":[{\"id\":\"ac3939a1-34f1-4507-8a80-aeca04629d48\",\"createdAt\":[2022,7,4,10,6,6,243744000],\"createdBy\":\"anonymousUser\",\"updatedAt\":null,\"updatedBy\":null,\"isDeleted\":false,\"name\":\"user\",\"description\":\"-\"}],\"enabled\":true,\"authorities\":[{\"authority\":\"USER\"}],\"username\":\"anakbaik@gmail.com\",\"accountNonExpired\":true,\"accountNonLocked\":true,\"credentialsNonExpired\":true}]},{\"id\":\"2e773240-0bd1-4621-8f0c-93cf52a7691d\",\"createdAt\":[2022,7,5,14,9,36,519301000],\"createdBy\":\"sss@gmail.com\",\"updatedAt\":[2022,7,7,3,36,31,717991000],\"updatedBy\":\"dan@gmail.com\",\"isDeleted\":false,\"name\":\"Trial kelas\",\"room\":\"\",\"reportUrl\":null,\"code\":\"e83e7c3680\",\"status\":\"ACTIVE\",\"users\":[{\"id\":\"8505279e-a2c9-48a0-bf48-fe2a10482dd7\",\"createdAt\":[2022,7,4,11,48,1,154554000],\"createdBy\":\"anonymousUser\",\"updatedAt\":[2022,7,14,10,19,26,683588000],\"updatedBy\":\"sss@gmail.com\",\"isDeleted\":false,\"fullName\":\"sss\",\"email\":\"sb@gmail.com\",\"password\":\"$2a$10$oZ8Glbemzz6s0pkKvWFKEeuP8CkSw9spTBwCNkaa7jlwX//IeT73q\",\"telepon\":\"\",\"roles\":[{\"id\":\"ac3939a1-34f1-4507-8a80-aeca04629d48\",\"createdAt\":[2022,7,4,10,6,6,243744000],\"createdBy\":\"anonymousUser\",\"updatedAt\":null,\"updatedBy\":null,\"isDeleted\":false,\"name\":\"user\",\"description\":\"-\"}],\"enabled\":true,\"authorities\":[{\"authority\":\"USER\"}],\"username\":\"sb@gmail.com\",\"accountNonExpired\":true,\"accountNonLocked\":true,\"credentialsNonExpired\":true}]},{\"id\":\"d8466c32-3610-4c43-a8c6-d43381a1d490\",\"createdAt\":[2022,7,6,8,56,16,686679000],\"createdBy\":\"sals@gmail.com\",\"updatedAt\":[2022,7,9,6,31,23,713341000],\"updatedBy\":\"aa@gmail.com\",\"isDeleted\":false,\"name\":\"trial class 2\",\"room\":\"\",\"reportUrl\":null,\"code\":\"d09348a644\",\"status\":\"ACTIVE\",\"users\":[{\"id\":\"bc519b27-fb48-48c4-888b-46e48235b9fe\",\"createdAt\":[2022,7,6,6,34,46,262417000],\"createdBy\":\"anonymousUser\",\"updatedAt\":null,\"updatedBy\":null,\"isDeleted\":false,\"fullName\":\"sal\",\"email\":\"sals@gmail.com\",\"password\":\"$2a$10$yvv6nXDVhOnazXnBtbTSZOd0rKwzuyhwOLS69cxyidXMuWzsBaN4C\",\"telepon\":\"\",\"roles\":[{\"id\":\"ac3939a1-34f1-4507-8a80-aeca04629d48\",\"createdAt\":[2022,7,4,10,6,6,243744000],\"createdBy\":\"anonymousUser\",\"updatedAt\":null,\"updatedBy\":null,\"isDeleted\":false,\"name\":\"user\",\"description\":\"-\"}],\"enabled\":true,\"authorities\":[{\"authority\":\"USER\"}],\"username\":\"sals@gmail.com\",\"accountNonExpired\":true,\"accountNonLocked\":true,\"credentialsNonExpired\":true},{\"id\":\"ab1993fe-3b5f-4313-9a54-d4820332fad2\",\"createdAt\":[2022,7,5,13,49,46,528962000],\"createdBy\":\"anonymousUser\",\"updatedAt\":[2022,7,12,19,10,8,472188000],\"updatedBy\":\"sal@gmail.com\",\"isDeleted\":false,\"fullName\":\"akun 1\",\"email\":\"sal@gmail.com\",\"password\":\"$2a$10$F/WgSGAW/7r/aa0snlLxfO50lCczcM0QTXG/I0xTRlL5NkDrS/Qpq\",\"telepon\":\"08\",\"roles\":[{\"id\":\"ac3939a1-34f1-4507-8a80-aeca04629d48\",\"createdAt\":[2022,7,4,10,6,6,243744000],\"createdBy\":\"anonymousUser\",\"updatedAt\":null,\"updatedBy\":null,\"isDeleted\":false,\"name\":\"user\",\"description\":\"-\"}],\"enabled\":true,\"authorities\":[{\"authority\":\"USER\"}],\"username\":\"sal@gmail.com\",\"accountNonExpired\":true,\"accountNonLocked\":true,\"credentialsNonExpired\":true},{\"id\":\"63037f52-752f-467a-81d8-59ed275bfc4e\",\"createdAt\":[2022,7,6,15,32,46,387538000],\"createdBy\":\"anonymousUser\",\"updatedAt\":[2022,7,15,0,22,10,475170000],\"updatedBy\":\"zz@gmail.com\",\"isDeleted\":false,\"fullName\":\"Adam R\",\"email\":\"aa@gmail.com\",\"password\":\"$2a$10$mfbjYUxcuKfdMSKM16V6Vexwk7w1JqSnCsvv18QVCoQ3LmxvvDnSe\",\"telepon\":\"\",\"roles\":[{\"id\":\"ac3939a1-34f1-4507-8a80-aeca04629d48\",\"createdAt\":[2022,7,4,10,6,6,243744000],\"createdBy\":\"anonymousUser\",\"updatedAt\":null,\"updatedBy\":null,\"isDeleted\":false,\"name\":\"user\",\"description\":\"-\"}],\"enabled\":true,\"authorities\":[{\"authority\":\"USER\"}],\"username\":\"aa@gmail.com\",\"accountNonExpired\":true,\"accountNonLocked\":true,\"credentialsNonExpired\":true}]},{\"id\":\"bc2318c3-5cda-4689-858f-1f16cf65d243\",\"createdAt\":[2022,7,6,14,11,9,566553000],\"createdBy\":\"sals@gmail.com\",\"updatedAt\":null,\"updatedBy\":null,\"isDeleted\":false,\"name\":\"Trial 2\",\"room\":\"\",\"reportUrl\":null,\"code\":\"b467b7237e\",\"status\":\"ACTIVE\",\"users\":[{\"id\":\"bc519b27-fb48-48c4-888b-46e48235b9fe\",\"createdAt\":[2022,7,6,6,34,46,262417000],\"createdBy\":\"anonymousUser\",\"updatedAt\":null,\"updatedBy\":null,\"isDeleted\":false,\"fullName\":\"sal\",\"email\":\"sals@gmail.com\",\"password\":\"$2a$10$yvv6nXDVhOnazXnBtbTSZOd0rKwzuyhwOLS69cxyidXMuWzsBaN4C\",\"telepon\":\"\",\"roles\":[{\"id\":\"ac3939a1-34f1-4507-8a80-aeca04629d48\",\"createdAt\":[2022,7,4,10,6,6,243744000],\"createdBy\":\"anonymousUser\",\"updatedAt\":null,\"updatedBy\":null,\"isDeleted\":false,\"name\":\"user\",\"description\":\"-\"}],\"enabled\":true,\"authorities\":[{\"authority\":\"USER\"}],\"username\":\"sals@gmail.com\",\"accountNonExpired\":true,\"accountNonLocked\":true,\"credentialsNonExpired\":true}]},{\"id\":\"95c01a4a-87e6-49f3-86a7-3c4cf0e02747\",\"createdAt\":[2022,7,6,14,13,51,431898000],\"createdBy\":\"sals@gmail.com\",\"updatedAt\":null,\"updatedBy\":null,\"isDeleted\":false,\"name\":\"Class 2\",\"room\":\"\",\"reportUrl\":null,\"code\":\"21c60e906d\",\"status\":\"ACTIVE\",\"users\":[{\"id\":\"bc519b27-fb48-48c4-888b-46e48235b9fe\",\"createdAt\":[2022,7,6,6,34,46,262417000],\"createdBy\":\"anonymousUser\",\"updatedAt\":null,\"updatedBy\":null,\"isDeleted\":false,\"fullName\":\"sal\",\"email\":\"sals@gmail.com\",\"password\":\"$2a$10$yvv6nXDVhOnazXnBtbTSZOd0rKwzuyhwOLS69cxyidXMuWzsBaN4C\",\"telepon\":\"\",\"roles\":[{\"id\":\"ac3939a1-34f1-4507-8a80-aeca04629d48\",\"createdAt\":[2022,7,4,10,6,6,243744000],\"createdBy\":\"anonymousUser\",\"updatedAt\":null,\"updatedBy\":null,\"isDeleted\":false,\"name\":\"user\",\"description\":\"-\"}],\"enabled\":true,\"authorities\":[{\"authority\":\"USER\"}],\"username\":\"sals@gmail.com\",\"accountNonExpired\":true,\"accountNonLocked\":true,\"credentialsNonExpired\":true}]},{\"id\":\"f164b80c-87ce-4f04-a840-a773a09f38d4\",\"createdAt\":[2022,7,5,13,45,6,820000],\"createdBy\":\"archen@gmail.com\",\"updatedAt\":[2022,7,6,14,15,45,759057000],\"updatedBy\":\"irdhaislakhuafa@gmail.com\",\"isDeleted\":false,\"name\":\"class from endpoint\",\"room\":\"\",\"reportUrl\":null,\"code\":\"37b062f086\",\"status\":\"ACTIVE\",\"users\":[{\"id\":\"38ff5b8f-59a4-45b8-8011-8b58612009aa\",\"createdAt\":[2022,7,4,10,6,6,280798000],\"createdBy\":\"anonymousUser\",\"updatedAt\":null,\"updatedBy\":null,\"isDeleted\":false,\"fullName\":\"Irda Islakhu Afa\",\"email\":\"irdhaislakhuafa@gmail.com\",\"password\":\"$2a$10$8UFTokCCkN5rexeHA9DTNuzAS1XmfbKlT1t2USxxoNy6VwbCLoeqm\",\"telepon\":\"\",\"roles\":[{\"id\":\"ac3939a1-34f1-4507-8a80-aeca04629d48\",\"createdAt\":[2022,7,4,10,6,6,243744000],\"createdBy\":\"anonymousUser\",\"updatedAt\":null,\"updatedBy\":null,\"isDeleted\":false,\"name\":\"user\",\"description\":\"-\"}],\"enabled\":true,\"authorities\":[{\"authority\":\"USER\"}],\"username\":\"irdhaislakhuafa@gmail.com\",\"accountNonExpired\":true,\"accountNonLocked\":true,\"credentialsNonExpired\":true},{\"id\":\"bdabee50-329e-4875-b941-d9ca2daac8e5\",\"createdAt\":[2022,7,4,11,54,6,233786000],\"createdBy\":\"anonymousUser\",\"updatedAt\":[2022,7,14,5,44,25,337403000],\"updatedBy\":\"archen\",\"isDeleted\":false,\"fullName\":\"Archie\",\"email\":\"archen@gmail.com\",\"password\":\"$2a$10$d7PxqbU1XBIU57V9eiCJNuYkoHj9NT836lK/5x5HlQc1ToDHVrtkm\",\"telepon\":\"0811233449433\",\"roles\":[{\"id\":\"ac3939a1-34f1-4507-8a80-aeca04629d48\",\"createdAt\":[2022,7,4,10,6,6,243744000],\"createdBy\":\"anonymousUser\",\"updatedAt\":null,\"updatedBy\":null,\"isDeleted\":false,\"name\":\"user\",\"description\":\"-\"}],\"enabled\":true,\"authorities\":[{\"authority\":\"USER\"}],\"username\":\"archen@gmail.com\",\"accountNonExpired\":true,\"accountNonLocked\":true,\"credentialsNonExpired\":true}]},{\"id\":\"92ad902c-6307-452c-b79c-d0043c80d8d9\",\"createdAt\":[2022,7,6,14,23,29,627170000],\"createdBy\":\"ferri@gmailcom\",\"updatedAt\":null,\"updatedBy\":null,\"isDeleted\":false,\"name\":\"Kelas Baru\",\"room\":\"\",\"reportUrl\":null,\"code\":\"e92883ae8b\",\"status\":\"ACTIVE\",\"users\":[{\"id\":\"a4925049-03d2-4eb2-a9df-6e227ac56c73\",\"createdAt\":[2022,7,4,12,14,55,770961000],\"createdBy\":\"anonymousUser\",\"updatedAt\":null,\"updatedBy\":null,\"isDeleted\":false,\"fullName\":\"Ferri\",\"email\":\"ferri@gmailcom\",\"password\":\"$2a$10$1FRfgkmV0OGsWwDOTQZfjOvccYkvUNueCo5VKLKafhxCn8T9DUsdW\",\"telepon\":\"\",\"roles\":[{\"id\":\"ac3939a1-34f1-4507-8a80-aeca04629d48\",\"createdAt\":[2022,7,4,10,6,6,243744000],\"createdBy\":\"anonymousUser\",\"updatedAt\":null,\"updatedBy\":null,\"isDeleted\":false,\"name\":\"user\",\"description\":\"-\"}],\"enabled\":true,\"authorities\":[{\"authority\":\"USER\"}],\"username\":\"ferri@gmailcom\",\"accountNonExpired\":true,\"accountNonLocked\":true,\"credentialsNonExpired\":true}]}],\"page\":1,\"size\":10,\"totalPage\":6,\"totalSize\":58}}",
          "comment" : ""
        },
        "redirectURL" : "",
        "headersSize" : 360,
        "bodySize" : -1,
        "comment" : ""
      },
      "cache" : { },
      "timings" : {
        "comment" : "",
        "ssl" : -1,
        "connect" : 0,
        "blocked" : -1,
        "send" : 0,
        "wait" : 0,
        "dns" : -1,
        "receive" : 0
      },
      "comment" : "",
      "_katalonRequestInformation" : {
        "name" : "50",
        "testObjectId" : "Object Repository/01_API/02_Class/SC012_Get All Class by Page and Size/TC001_Get All Class by Page and Size",
        "harId" : "764fb669-e032-40d0-a389-8e46f4b5ac4a",
        "reportFolder" : null
      },
      "time" : 0
    } ],
    "comment" : ""
  }
}