{
  "log" : {
    "version" : "1.2",
    "pages" : [ ],
    "entries" : [ {
      "startedDateTime" : "2022-07-02T13:30:13.477Z",
      "request" : {
        "method" : "GET",
        "url" : "http://ec2-34-219-136-154.us-west-2.compute.amazonaws.com/restapi/v1/class/1/10",
        "httpVersion" : "",
        "cookies" : [ ],
        "headers" : [ {
          "name" : "Content-Type",
          "value" : "application/json"
        }, {
          "name" : "Authorization",
          "value" : "Bearer eyJhbGciOiJIUzI1NiJ9.eyJyb2xlcyI6W3siYXV0aG9yaXR5IjoiVVNFUiJ9XSwiZXhwIjoxNjU2NzcwNjM4LCJ1c2VySWQiOiI2OTczMTdkZC0wMWVjLTQwNTUtYWI1OC0yYTE3MTJjZDZmZDYiLCJpYXQiOjE2NTY3NjcwMzh9.rm9gAseBrzlZJsv9XjoEvZr-yoM4UVEEY6IeYJ-s4zc"
        } ],
        "queryString" : [ ],
        "postData" : {
          "mimeType" : "application/json",
          "text" : "{\n  \"classCode\": \"2e5f0d107b\",\n  \"userId\": \"697317dd-01ec-4055-ab58-2a1712cd6fd6\"\n}",
          "comment" : ""
        },
        "headersSize" : 0,
        "bodySize" : 0,
        "comment" : ""
      },
      "response" : {
        "status" : 200,
        "statusText" : "",
        "httpVersion" : "",
        "cookies" : [ ],
        "headers" : [ {
          "name" : "Transfer-Encoding",
          "value" : "chunked"
        }, {
          "name" : "Keep-Alive",
          "value" : "timeout=60"
        }, {
          "name" : "X-Content-Type-Options",
          "value" : "nosniff"
        }, {
          "name" : "Connection",
          "value" : "keep-alive"
        }, {
          "name" : "Pragma",
          "value" : "no-cache"
        }, {
          "name" : "Date",
          "value" : "Sat, 02 Jul 2022 13:30:12 GMT"
        }, {
          "name" : "X-Frame-Options",
          "value" : "DENY"
        }, {
          "name" : "Cache-Control",
          "value" : "no-cache, no-store, max-age=0, must-revalidate"
        }, {
          "name" : "Vary",
          "value" : "Origin"
        }, {
          "name" : "Vary",
          "value" : "Access-Control-Request-Method"
        }, {
          "name" : "Vary",
          "value" : "Access-Control-Request-Headers"
        }, {
          "name" : "Expires",
          "value" : "0"
        }, {
          "name" : "#status#",
          "value" : "HTTP/1.1 200 "
        }, {
          "name" : "X-XSS-Protection",
          "value" : "1; mode=block"
        }, {
          "name" : "Content-Type",
          "value" : "application/json"
        } ],
        "content" : {
          "size" : 15507,
          "mimeType" : "application/json",
          "text" : "{\"errors\":null,\"status\":true,\"data\":{\"data\":[{\"id\":\"ab2d604a-de90-4d5f-952b-86d92779c7f3\",\"createdAt\":[2022,6,26,11,13,17,72888000],\"createdBy\":\"archen@gmail.com\",\"updatedAt\":[2022,6,26,12,30,4,807256000],\"updatedBy\":\"sa\",\"isDeleted\":false,\"name\":\"Quality Assurance\",\"room\":\"\",\"reportUrl\":null,\"code\":\"d5cbde6d83\",\"status\":\"ACTIVE\",\"users\":[{\"id\":\"8ab304df-fb73-4808-a721-9f55edf7817b\",\"createdAt\":[2022,6,26,12,29,49,93291000],\"createdBy\":\"anonymousUser\",\"updatedAt\":[2022,6,26,13,14,52,199073000],\"updatedBy\":\"sa\",\"isDeleted\":false,\"fullName\":\"sa\",\"email\":\"saaa\",\"password\":\"$2a$10$Rw.53pTl10jOnQt0dMv5c.wS1cnD2o6ectk.9QkXymeN9ktuGcHCS\",\"telepon\":\"\",\"roles\":[{\"id\":\"215d36ee-5893-4067-a964-0b4dd876555a\",\"createdAt\":[2022,6,25,6,26,53,962042000],\"createdBy\":\"anonymousUser\",\"updatedAt\":null,\"updatedBy\":null,\"isDeleted\":false,\"name\":\"user\",\"description\":\"-\"}],\"enabled\":true,\"authorities\":[{\"authority\":\"USER\"}],\"username\":\"saaa\",\"accountNonExpired\":true,\"accountNonLocked\":true,\"credentialsNonExpired\":true},{\"id\":\"347f71fc-c840-4730-bb5c-d9f5ef09e072\",\"createdAt\":[2022,6,26,11,12,42,727190000],\"createdBy\":\"anonymousUser\",\"updatedAt\":[2022,6,27,13,41,21,511466000],\"updatedBy\":\"anonymousUser\",\"isDeleted\":false,\"fullName\":\"Archie\",\"email\":\"email2@gmail.com\",\"password\":\"$2a$10$rvm0PsgoHdHbB9sMyDsUpeTEvhXnCm6ZR/9F9o3Y5Y.Q0pSxZzM7O\",\"telepon\":\"0811233449448\",\"roles\":[{\"id\":\"215d36ee-5893-4067-a964-0b4dd876555a\",\"createdAt\":[2022,6,25,6,26,53,962042000],\"createdBy\":\"anonymousUser\",\"updatedAt\":null,\"updatedBy\":null,\"isDeleted\":false,\"name\":\"user\",\"description\":\"-\"}],\"enabled\":true,\"authorities\":[{\"authority\":\"USER\"}],\"username\":\"email2@gmail.com\",\"accountNonExpired\":true,\"accountNonLocked\":true,\"credentialsNonExpired\":true}]},{\"id\":\"c61bab36-bab5-4235-8188-89055d307223\",\"createdAt\":[2022,6,26,12,50,17,25158000],\"createdBy\":\"qq@gmail.com\",\"updatedAt\":[2022,6,26,12,51,37,327513000],\"updatedBy\":\"dan@gmail.com\",\"isDeleted\":false,\"name\":\"Hacker Class\",\"room\":\"Hacker only\",\"reportUrl\":null,\"code\":\"194b598e5f\",\"status\":\"ACTIVE\",\"users\":[{\"id\":\"ea89462e-a270-4a95-9e7a-c72c6e6872b1\",\"createdAt\":[2022,6,25,6,26,54,10274000],\"createdBy\":\"anonymousUser\",\"updatedAt\":[2022,6,26,12,48,56,245635000],\"updatedBy\":\"dan@gmail.com\",\"isDeleted\":false,\"fullName\":\"yardan\",\"email\":\"dan@gmail.com\",\"password\":\"$2a$10$TEwXIhZpoxkkgw5FxMjsnuw9VRihQlsxECbzlHGb9yMWT2XVXlRK6\",\"telepon\":\"0822222222222222\",\"roles\":[{\"id\":\"215d36ee-5893-4067-a964-0b4dd876555a\",\"createdAt\":[2022,6,25,6,26,53,962042000],\"createdBy\":\"anonymousUser\",\"updatedAt\":null,\"updatedBy\":null,\"isDeleted\":false,\"name\":\"user\",\"description\":\"-\"}],\"enabled\":true,\"authorities\":[{\"authority\":\"USER\"}],\"username\":\"dan@gmail.com\",\"accountNonExpired\":true,\"accountNonLocked\":true,\"credentialsNonExpired\":true},{\"id\":\"72f5e21d-0300-4c81-8e81-f5f3a02e34b1\",\"createdAt\":[2022,6,26,1,56,8,752679000],\"createdBy\":\"anonymousUser\",\"updatedAt\":[2022,7,2,4,5,7,873426000],\"updatedBy\":\"qq@gmail.com\",\"isDeleted\":false,\"fullName\":\"Qiqi\",\"email\":\"qq@gmail.com\",\"password\":\"$2a$10$fOFY7x1zJreSQXV7mT3R0.DUeUAeAriKzwMk/Tcj0HyIpxWVFOKBG\",\"telepon\":\"081234123411\",\"roles\":[{\"id\":\"215d36ee-5893-4067-a964-0b4dd876555a\",\"createdAt\":[2022,6,25,6,26,53,962042000],\"createdBy\":\"anonymousUser\",\"updatedAt\":null,\"updatedBy\":null,\"isDeleted\":false,\"name\":\"user\",\"description\":\"-\"}],\"enabled\":true,\"authorities\":[{\"authority\":\"USER\"}],\"username\":\"qq@gmail.com\",\"accountNonExpired\":true,\"accountNonLocked\":true,\"credentialsNonExpired\":true}]},{\"id\":\"b4ef7e43-bc8f-454b-a87f-99bc410b4047\",\"createdAt\":[2022,6,25,8,13,3,528667000],\"createdBy\":\"dosen@gmail.com\",\"updatedAt\":[2022,6,26,13,6,14,501781000],\"updatedBy\":\"qq@gmail.com\",\"isDeleted\":false,\"name\":\"Belajar HTML Dasar 01PT1\",\"room\":\"\",\"reportUrl\":null,\"code\":\"c472433c70\",\"status\":\"ACTIVE\",\"users\":[{\"id\":\"6ea97e1f-2c3f-479c-8508-2c8b417b6830\",\"createdAt\":[2022,6,25,8,11,25,691249000],\"createdBy\":\"anonymousUser\",\"updatedAt\":null,\"updatedBy\":null,\"isDeleted\":false,\"fullName\":\"React Panjaitan\",\"email\":\"dosen@gmail.com\",\"password\":\"$2a$10$Ac57H7zEGcEGbNjR2ZhJYeUhm9PLrffNRswWHKhzqsJu0CNtbY.9C\",\"telepon\":\"\",\"roles\":[{\"id\":\"215d36ee-5893-4067-a964-0b4dd876555a\",\"createdAt\":[2022,6,25,6,26,53,962042000],\"createdBy\":\"anonymousUser\",\"updatedAt\":null,\"updatedBy\":null,\"isDeleted\":false,\"name\":\"user\",\"description\":\"-\"}],\"enabled\":true,\"authorities\":[{\"authority\":\"USER\"}],\"username\":\"dosen@gmail.com\",\"accountNonExpired\":true,\"accountNonLocked\":true,\"credentialsNonExpired\":true},{\"id\":\"cf135279-51fe-4c8d-9416-4f623ae78872\",\"createdAt\":[2022,6,26,9,41,36,133023000],\"createdBy\":\"anonymousUser\",\"updatedAt\":null,\"updatedBy\":null,\"isDeleted\":false,\"fullName\":\"admin123\",\"email\":\"admin@gmail.com\",\"password\":\"$2a$10$cesHwGY2766EAzxMToXg1.s5A1qN1X3IdAHh3hy.JHvVVbE5CCM.6\",\"telepon\":\"\",\"roles\":[{\"id\":\"215d36ee-5893-4067-a964-0b4dd876555a\",\"createdAt\":[2022,6,25,6,26,53,962042000],\"createdBy\":\"anonymousUser\",\"updatedAt\":null,\"updatedBy\":null,\"isDeleted\":false,\"name\":\"user\",\"description\":\"-\"}],\"enabled\":true,\"authorities\":[{\"authority\":\"USER\"}],\"username\":\"admin@gmail.com\",\"accountNonExpired\":true,\"accountNonLocked\":true,\"credentialsNonExpired\":true},{\"id\":\"ea89462e-a270-4a95-9e7a-c72c6e6872b1\",\"createdAt\":[2022,6,25,6,26,54,10274000],\"createdBy\":\"anonymousUser\",\"updatedAt\":[2022,6,26,12,48,56,245635000],\"updatedBy\":\"dan@gmail.com\",\"isDeleted\":false,\"fullName\":\"yardan\",\"email\":\"dan@gmail.com\",\"password\":\"$2a$10$TEwXIhZpoxkkgw5FxMjsnuw9VRihQlsxECbzlHGb9yMWT2XVXlRK6\",\"telepon\":\"0822222222222222\",\"roles\":[{\"id\":\"215d36ee-5893-4067-a964-0b4dd876555a\",\"createdAt\":[2022,6,25,6,26,53,962042000],\"createdBy\":\"anonymousUser\",\"updatedAt\":null,\"updatedBy\":null,\"isDeleted\":false,\"name\":\"user\",\"description\":\"-\"}],\"enabled\":true,\"authorities\":[{\"authority\":\"USER\"}],\"username\":\"dan@gmail.com\",\"accountNonExpired\":true,\"accountNonLocked\":true,\"credentialsNonExpired\":true},{\"id\":\"72f5e21d-0300-4c81-8e81-f5f3a02e34b1\",\"createdAt\":[2022,6,26,1,56,8,752679000],\"createdBy\":\"anonymousUser\",\"updatedAt\":[2022,7,2,4,5,7,873426000],\"updatedBy\":\"qq@gmail.com\",\"isDeleted\":false,\"fullName\":\"Qiqi\",\"email\":\"qq@gmail.com\",\"password\":\"$2a$10$fOFY7x1zJreSQXV7mT3R0.DUeUAeAriKzwMk/Tcj0HyIpxWVFOKBG\",\"telepon\":\"081234123411\",\"roles\":[{\"id\":\"215d36ee-5893-4067-a964-0b4dd876555a\",\"createdAt\":[2022,6,25,6,26,53,962042000],\"createdBy\":\"anonymousUser\",\"updatedAt\":null,\"updatedBy\":null,\"isDeleted\":false,\"name\":\"user\",\"description\":\"-\"}],\"enabled\":true,\"authorities\":[{\"authority\":\"USER\"}],\"username\":\"qq@gmail.com\",\"accountNonExpired\":true,\"accountNonLocked\":true,\"credentialsNonExpired\":true}]},{\"id\":\"f70bae34-1910-4e60-972b-a18a35661285\",\"createdAt\":[2022,6,27,3,40,13,54350000],\"createdBy\":\"admin@gmail.com\",\"updatedAt\":null,\"updatedBy\":null,\"isDeleted\":false,\"name\":\"Belajar Salto\",\"room\":\"\",\"reportUrl\":null,\"code\":\"cb9d297c39\",\"status\":\"ACTIVE\",\"users\":[{\"id\":\"cf135279-51fe-4c8d-9416-4f623ae78872\",\"createdAt\":[2022,6,26,9,41,36,133023000],\"createdBy\":\"anonymousUser\",\"updatedAt\":null,\"updatedBy\":null,\"isDeleted\":false,\"fullName\":\"admin123\",\"email\":\"admin@gmail.com\",\"password\":\"$2a$10$cesHwGY2766EAzxMToXg1.s5A1qN1X3IdAHh3hy.JHvVVbE5CCM.6\",\"telepon\":\"\",\"roles\":[{\"id\":\"215d36ee-5893-4067-a964-0b4dd876555a\",\"createdAt\":[2022,6,25,6,26,53,962042000],\"createdBy\":\"anonymousUser\",\"updatedAt\":null,\"updatedBy\":null,\"isDeleted\":false,\"name\":\"user\",\"description\":\"-\"}],\"enabled\":true,\"authorities\":[{\"authority\":\"USER\"}],\"username\":\"admin@gmail.com\",\"accountNonExpired\":true,\"accountNonLocked\":true,\"credentialsNonExpired\":true}]},{\"id\":\"41a4532b-73b5-4c58-8768-a465ad525527\",\"createdAt\":[2022,6,26,12,42,49,489767000],\"createdBy\":\"dan@gmail.com\",\"updatedAt\":[2022,6,27,12,3,34,735764000],\"updatedBy\":\"jon2@gmail.com\",\"isDeleted\":false,\"name\":\"Flutter\",\"room\":\"Demo Class\",\"reportUrl\":null,\"code\":\"0bee5b4c13\",\"status\":\"ACTIVE\",\"users\":[{\"id\":\"ea89462e-a270-4a95-9e7a-c72c6e6872b1\",\"createdAt\":[2022,6,25,6,26,54,10274000],\"createdBy\":\"anonymousUser\",\"updatedAt\":[2022,6,26,12,48,56,245635000],\"updatedBy\":\"dan@gmail.com\",\"isDeleted\":false,\"fullName\":\"yardan\",\"email\":\"dan@gmail.com\",\"password\":\"$2a$10$TEwXIhZpoxkkgw5FxMjsnuw9VRihQlsxECbzlHGb9yMWT2XVXlRK6\",\"telepon\":\"0822222222222222\",\"roles\":[{\"id\":\"215d36ee-5893-4067-a964-0b4dd876555a\",\"createdAt\":[2022,6,25,6,26,53,962042000],\"createdBy\":\"anonymousUser\",\"updatedAt\":null,\"updatedBy\":null,\"isDeleted\":false,\"name\":\"user\",\"description\":\"-\"}],\"enabled\":true,\"authorities\":[{\"authority\":\"USER\"}],\"username\":\"dan@gmail.com\",\"accountNonExpired\":true,\"accountNonLocked\":true,\"credentialsNonExpired\":true},{\"id\":\"6adb215f-ac93-4ac9-8aa0-804d871cc2f9\",\"createdAt\":[2022,6,26,14,40,48,939999000],\"createdBy\":\"anonymousUser\",\"updatedAt\":[2022,7,1,11,54,47,106079000],\"updatedBy\":\"jon2@gmail.com\",\"isDeleted\":false,\"fullName\":\"Johanes\",\"email\":\"jon2@gmail.com\",\"password\":\"$2a$10$qw4UoDFhdHKVfKbB4W0jv.jfhKd5mRnuyQk4zchHQHX.glAwdwkea\",\"telepon\":\"1212\",\"roles\":[{\"id\":\"215d36ee-5893-4067-a964-0b4dd876555a\",\"createdAt\":[2022,6,25,6,26,53,962042000],\"createdBy\":\"anonymousUser\",\"updatedAt\":null,\"updatedBy\":null,\"isDeleted\":false,\"name\":\"user\",\"description\":\"-\"}],\"enabled\":true,\"authorities\":[{\"authority\":\"USER\"}],\"username\":\"jon2@gmail.com\",\"accountNonExpired\":true,\"accountNonLocked\":true,\"credentialsNonExpired\":true}]},{\"id\":\"bd506c6c-9777-423d-b3d6-d95a9d73a5c8\",\"createdAt\":[2022,6,27,12,4,16,499205000],\"createdBy\":\"jon2@gmail.com\",\"updatedAt\":null,\"updatedBy\":null,\"isDeleted\":false,\"name\":\"Coba Class\",\"room\":\"\",\"reportUrl\":null,\"code\":\"7b9a891c70\",\"status\":\"ACTIVE\",\"users\":[{\"id\":\"6adb215f-ac93-4ac9-8aa0-804d871cc2f9\",\"createdAt\":[2022,6,26,14,40,48,939999000],\"createdBy\":\"anonymousUser\",\"updatedAt\":[2022,7,1,11,54,47,106079000],\"updatedBy\":\"jon2@gmail.com\",\"isDeleted\":false,\"fullName\":\"Johanes\",\"email\":\"jon2@gmail.com\",\"password\":\"$2a$10$qw4UoDFhdHKVfKbB4W0jv.jfhKd5mRnuyQk4zchHQHX.glAwdwkea\",\"telepon\":\"1212\",\"roles\":[{\"id\":\"215d36ee-5893-4067-a964-0b4dd876555a\",\"createdAt\":[2022,6,25,6,26,53,962042000],\"createdBy\":\"anonymousUser\",\"updatedAt\":null,\"updatedBy\":null,\"isDeleted\":false,\"name\":\"user\",\"description\":\"-\"}],\"enabled\":true,\"authorities\":[{\"authority\":\"USER\"}],\"username\":\"jon2@gmail.com\",\"accountNonExpired\":true,\"accountNonLocked\":true,\"credentialsNonExpired\":true}]},{\"id\":\"c7e9662f-bcbe-47e1-abfb-c7ac0ebb4b18\",\"createdAt\":[2022,6,25,13,17,42,848377000],\"createdBy\":\"hehe@gmail.com\",\"updatedAt\":[2022,6,27,12,15,29,244028000],\"updatedBy\":\"anakbaik@gmail.com\",\"isDeleted\":false,\"name\":\"Ini kelas\",\"room\":\"\",\"reportUrl\":null,\"code\":\"fe95d22380\",\"status\":\"ACTIVE\",\"users\":[{\"id\":\"150e2fd3-c259-46bd-a6a9-9c9c64d0d405\",\"createdAt\":[2022,6,25,12,36,59,676246000],\"createdBy\":\"anonymousUser\",\"updatedAt\":null,\"updatedBy\":null,\"isDeleted\":false,\"fullName\":\"Hehe_boi\",\"email\":\"hehe@gmail.com\",\"password\":\"$2a$10$neDRrIt04cEFIm43L5pVcO5W4NmHkz6nUhiQYycZ5VhS2k3cBcoJ2\",\"telepon\":\"\",\"roles\":[{\"id\":\"215d36ee-5893-4067-a964-0b4dd876555a\",\"createdAt\":[2022,6,25,6,26,53,962042000],\"createdBy\":\"anonymousUser\",\"updatedAt\":null,\"updatedBy\":null,\"isDeleted\":false,\"name\":\"user\",\"description\":\"-\"}],\"enabled\":true,\"authorities\":[{\"authority\":\"USER\"}],\"username\":\"hehe@gmail.com\",\"accountNonExpired\":true,\"accountNonLocked\":true,\"credentialsNonExpired\":true},{\"id\":\"45ad67da-1cbe-418d-9403-c2d32039e062\",\"createdAt\":[2022,6,27,12,13,51,883443000],\"createdBy\":\"anonymousUser\",\"updatedAt\":null,\"updatedBy\":null,\"isDeleted\":false,\"fullName\":\"Anak-baik\",\"email\":\"anakbaik@gmail.com\",\"password\":\"$2a$10$XAoF/DootdAdX3Ah5X2c0e9gOxtakfuuIjWeBBcJ8jmcf2t31Lt92\",\"telepon\":\"\",\"roles\":[{\"id\":\"215d36ee-5893-4067-a964-0b4dd876555a\",\"createdAt\":[2022,6,25,6,26,53,962042000],\"createdBy\":\"anonymousUser\",\"updatedAt\":null,\"updatedBy\":null,\"isDeleted\":false,\"name\":\"user\",\"description\":\"-\"}],\"enabled\":true,\"authorities\":[{\"authority\":\"USER\"}],\"username\":\"anakbaik@gmail.com\",\"accountNonExpired\":true,\"accountNonLocked\":true,\"credentialsNonExpired\":true}]},{\"id\":\"459b81b4-4711-497f-9f4d-5a104a1679b4\",\"createdAt\":[2022,6,27,12,18,12,31026000],\"createdBy\":\"anakbaik@gmail.com\",\"updatedAt\":[2022,6,27,12,19,37,262968000],\"updatedBy\":\"hehe@gmail.com\",\"isDeleted\":false,\"name\":\"Kelas anak baik\",\"room\":\"\",\"reportUrl\":null,\"code\":\"030e414b0d\",\"status\":\"ACTIVE\",\"users\":[{\"id\":\"150e2fd3-c259-46bd-a6a9-9c9c64d0d405\",\"createdAt\":[2022,6,25,12,36,59,676246000],\"createdBy\":\"anonymousUser\",\"updatedAt\":null,\"updatedBy\":null,\"isDeleted\":false,\"fullName\":\"Hehe_boi\",\"email\":\"hehe@gmail.com\",\"password\":\"$2a$10$neDRrIt04cEFIm43L5pVcO5W4NmHkz6nUhiQYycZ5VhS2k3cBcoJ2\",\"telepon\":\"\",\"roles\":[{\"id\":\"215d36ee-5893-4067-a964-0b4dd876555a\",\"createdAt\":[2022,6,25,6,26,53,962042000],\"createdBy\":\"anonymousUser\",\"updatedAt\":null,\"updatedBy\":null,\"isDeleted\":false,\"name\":\"user\",\"description\":\"-\"}],\"enabled\":true,\"authorities\":[{\"authority\":\"USER\"}],\"username\":\"hehe@gmail.com\",\"accountNonExpired\":true,\"accountNonLocked\":true,\"credentialsNonExpired\":true},{\"id\":\"45ad67da-1cbe-418d-9403-c2d32039e062\",\"createdAt\":[2022,6,27,12,13,51,883443000],\"createdBy\":\"anonymousUser\",\"updatedAt\":null,\"updatedBy\":null,\"isDeleted\":false,\"fullName\":\"Anak-baik\",\"email\":\"anakbaik@gmail.com\",\"password\":\"$2a$10$XAoF/DootdAdX3Ah5X2c0e9gOxtakfuuIjWeBBcJ8jmcf2t31Lt92\",\"telepon\":\"\",\"roles\":[{\"id\":\"215d36ee-5893-4067-a964-0b4dd876555a\",\"createdAt\":[2022,6,25,6,26,53,962042000],\"createdBy\":\"anonymousUser\",\"updatedAt\":null,\"updatedBy\":null,\"isDeleted\":false,\"name\":\"user\",\"description\":\"-\"}],\"enabled\":true,\"authorities\":[{\"authority\":\"USER\"}],\"username\":\"anakbaik@gmail.com\",\"accountNonExpired\":true,\"accountNonLocked\":true,\"credentialsNonExpired\":true}]},{\"id\":\"180273a1-5218-48f6-bd86-7cae77b86e9e\",\"createdAt\":[2022,6,27,12,16,37,625262000],\"createdBy\":\"archen@gmail.com\",\"updatedAt\":null,\"updatedBy\":null,\"isDeleted\":true,\"name\":\"Quality Engineer\",\"room\":\"\",\"reportUrl\":null,\"code\":\"2d15bc4875\",\"status\":\"ACTIVE\",\"users\":[]},{\"id\":\"8c79924f-cd9c-4f8f-93a6-9e72f69abb20\",\"createdAt\":[2022,6,27,12,28,55,937047000],\"createdBy\":\"anakbaik@gmail.com\",\"updatedAt\":[2022,6,27,12,29,44,23504000],\"updatedBy\":\"hehe@gmail.com\",\"isDeleted\":false,\"name\":\"Ini quill\",\"room\":\"\",\"reportUrl\":null,\"code\":\"bf9546ea5c\",\"status\":\"ACTIVE\",\"users\":[{\"id\":\"150e2fd3-c259-46bd-a6a9-9c9c64d0d405\",\"createdAt\":[2022,6,25,12,36,59,676246000],\"createdBy\":\"anonymousUser\",\"updatedAt\":null,\"updatedBy\":null,\"isDeleted\":false,\"fullName\":\"Hehe_boi\",\"email\":\"hehe@gmail.com\",\"password\":\"$2a$10$neDRrIt04cEFIm43L5pVcO5W4NmHkz6nUhiQYycZ5VhS2k3cBcoJ2\",\"telepon\":\"\",\"roles\":[{\"id\":\"215d36ee-5893-4067-a964-0b4dd876555a\",\"createdAt\":[2022,6,25,6,26,53,962042000],\"createdBy\":\"anonymousUser\",\"updatedAt\":null,\"updatedBy\":null,\"isDeleted\":false,\"name\":\"user\",\"description\":\"-\"}],\"enabled\":true,\"authorities\":[{\"authority\":\"USER\"}],\"username\":\"hehe@gmail.com\",\"accountNonExpired\":true,\"accountNonLocked\":true,\"credentialsNonExpired\":true},{\"id\":\"45ad67da-1cbe-418d-9403-c2d32039e062\",\"createdAt\":[2022,6,27,12,13,51,883443000],\"createdBy\":\"anonymousUser\",\"updatedAt\":null,\"updatedBy\":null,\"isDeleted\":false,\"fullName\":\"Anak-baik\",\"email\":\"anakbaik@gmail.com\",\"password\":\"$2a$10$XAoF/DootdAdX3Ah5X2c0e9gOxtakfuuIjWeBBcJ8jmcf2t31Lt92\",\"telepon\":\"\",\"roles\":[{\"id\":\"215d36ee-5893-4067-a964-0b4dd876555a\",\"createdAt\":[2022,6,25,6,26,53,962042000],\"createdBy\":\"anonymousUser\",\"updatedAt\":null,\"updatedBy\":null,\"isDeleted\":false,\"name\":\"user\",\"description\":\"-\"}],\"enabled\":true,\"authorities\":[{\"authority\":\"USER\"}],\"username\":\"anakbaik@gmail.com\",\"accountNonExpired\":true,\"accountNonLocked\":true,\"credentialsNonExpired\":true}]}],\"page\":1,\"size\":10,\"totalPage\":4,\"totalSize\":31}}",
          "comment" : ""
        },
        "redirectURL" : "",
        "headersSize" : 360,
        "bodySize" : -1,
        "comment" : ""
      },
      "cache" : { },
      "timings" : {
        "comment" : "",
        "send" : 0,
        "connect" : 0,
        "wait" : 0,
        "blocked" : -1,
        "receive" : 0,
        "dns" : -1,
        "ssl" : -1
      },
      "comment" : "",
      "_katalonRequestInformation" : {
        "name" : "17",
        "testObjectId" : "Object Repository/01_API/02_Class/SC012_Get All Class by Page and Size/TC001_Get All Class by Page and Size",
        "harId" : "bb08c79c-043e-4f86-bf4d-b61dee2cbc03",
        "reportFolder" : null
      },
      "time" : 0
    } ],
    "comment" : ""
  }
}