{
  "log" : {
    "version" : "1.2",
    "pages" : [ ],
    "entries" : [ {
      "startedDateTime" : "2022-07-18T01:51:27.416Z",
      "request" : {
        "method" : "GET",
        "url" : "http://ec2-34-219-136-154.us-west-2.compute.amazonaws.com/restapi/v1/class/1/10",
        "httpVersion" : "",
        "cookies" : [ ],
        "headers" : [ {
          "name" : "Content-Type",
          "value" : "application/json"
        }, {
          "name" : "Authorization",
          "value" : "Bearer eyJhbGciOiJIUzI1NiJ9.eyJyb2xlcyI6W3siYXV0aG9yaXR5IjoiVVNFUiJ9XSwiZXhwIjoxNjYwNzAwODU5LCJ1c2VySWQiOiIxMjU2YjE2MS1kMjViLTQxYTUtYWRjMC04OTVlYjljYjQ3YWMiLCJpYXQiOjE2NTgxMDg4NTl9._Ps5-MPlKArGV4oI8jTotJEssoB0G4aJQs3U5iGnpOg"
        } ],
        "queryString" : [ ],
        "postData" : {
          "mimeType" : "application/json",
          "text" : "{\n  \"classCode\": \"edfe061679\",\n  \"userId\": \"1256b161-d25b-41a5-adc0-895eb9cb47ac\"\n}",
          "comment" : ""
        },
        "headersSize" : 0,
        "bodySize" : 0,
        "comment" : ""
      },
      "response" : {
        "status" : 200,
        "statusText" : "",
        "httpVersion" : "",
        "cookies" : [ ],
        "headers" : [ {
          "name" : "Transfer-Encoding",
          "value" : "chunked"
        }, {
          "name" : "Keep-Alive",
          "value" : "timeout=60"
        }, {
          "name" : "X-Content-Type-Options",
          "value" : "nosniff"
        }, {
          "name" : "Connection",
          "value" : "keep-alive"
        }, {
          "name" : "Pragma",
          "value" : "no-cache"
        }, {
          "name" : "Date",
          "value" : "Mon, 18 Jul 2022 01:51:26 GMT"
        }, {
          "name" : "X-Frame-Options",
          "value" : "DENY"
        }, {
          "name" : "Cache-Control",
          "value" : "no-cache, no-store, max-age=0, must-revalidate"
        }, {
          "name" : "Vary",
          "value" : "Origin"
        }, {
          "name" : "Vary",
          "value" : "Access-Control-Request-Method"
        }, {
          "name" : "Vary",
          "value" : "Access-Control-Request-Headers"
        }, {
          "name" : "Expires",
          "value" : "0"
        }, {
          "name" : "#status#",
          "value" : "HTTP/1.1 200 "
        }, {
          "name" : "X-XSS-Protection",
          "value" : "1; mode=block"
        }, {
          "name" : "Content-Type",
          "value" : "application/json"
        } ],
        "content" : {
          "size" : 14579,
          "mimeType" : "application/json",
          "text" : "{\"errors\":null,\"status\":true,\"data\":{\"data\":[{\"id\":\"2e773240-0bd1-4621-8f0c-93cf52a7691d\",\"createdAt\":[2022,7,5,14,9,36,519301000],\"createdBy\":\"sss@gmail.com\",\"updatedAt\":[2022,7,7,3,36,31,717991000],\"updatedBy\":\"dan@gmail.com\",\"isDeleted\":false,\"name\":\"Trial kelas\",\"room\":\"\",\"reportUrl\":null,\"code\":\"e83e7c3680\",\"status\":\"ACTIVE\",\"users\":[{\"id\":\"8505279e-a2c9-48a0-bf48-fe2a10482dd7\",\"createdAt\":[2022,7,4,11,48,1,154554000],\"createdBy\":\"anonymousUser\",\"updatedAt\":[2022,7,14,10,19,26,683588000],\"updatedBy\":\"sss@gmail.com\",\"isDeleted\":false,\"fullName\":\"sss\",\"email\":\"sb@gmail.com\",\"password\":\"$2a$10$oZ8Glbemzz6s0pkKvWFKEeuP8CkSw9spTBwCNkaa7jlwX//IeT73q\",\"telepon\":\"\",\"roles\":[{\"id\":\"ac3939a1-34f1-4507-8a80-aeca04629d48\",\"createdAt\":[2022,7,4,10,6,6,243744000],\"createdBy\":\"anonymousUser\",\"updatedAt\":null,\"updatedBy\":null,\"isDeleted\":false,\"name\":\"user\",\"description\":\"-\"}],\"enabled\":true,\"authorities\":[{\"authority\":\"USER\"}],\"username\":\"sb@gmail.com\",\"accountNonExpired\":true,\"accountNonLocked\":true,\"credentialsNonExpired\":true}]},{\"id\":\"d8466c32-3610-4c43-a8c6-d43381a1d490\",\"createdAt\":[2022,7,6,8,56,16,686679000],\"createdBy\":\"sals@gmail.com\",\"updatedAt\":[2022,7,9,6,31,23,713341000],\"updatedBy\":\"aa@gmail.com\",\"isDeleted\":false,\"name\":\"trial class 2\",\"room\":\"\",\"reportUrl\":null,\"code\":\"d09348a644\",\"status\":\"ACTIVE\",\"users\":[{\"id\":\"bc519b27-fb48-48c4-888b-46e48235b9fe\",\"createdAt\":[2022,7,6,6,34,46,262417000],\"createdBy\":\"anonymousUser\",\"updatedAt\":null,\"updatedBy\":null,\"isDeleted\":false,\"fullName\":\"sal\",\"email\":\"sals@gmail.com\",\"password\":\"$2a$10$yvv6nXDVhOnazXnBtbTSZOd0rKwzuyhwOLS69cxyidXMuWzsBaN4C\",\"telepon\":\"\",\"roles\":[{\"id\":\"ac3939a1-34f1-4507-8a80-aeca04629d48\",\"createdAt\":[2022,7,4,10,6,6,243744000],\"createdBy\":\"anonymousUser\",\"updatedAt\":null,\"updatedBy\":null,\"isDeleted\":false,\"name\":\"user\",\"description\":\"-\"}],\"enabled\":true,\"authorities\":[{\"authority\":\"USER\"}],\"username\":\"sals@gmail.com\",\"accountNonExpired\":true,\"accountNonLocked\":true,\"credentialsNonExpired\":true},{\"id\":\"63037f52-752f-467a-81d8-59ed275bfc4e\",\"createdAt\":[2022,7,6,15,32,46,387538000],\"createdBy\":\"anonymousUser\",\"updatedAt\":[2022,7,15,0,22,10,475170000],\"updatedBy\":\"zz@gmail.com\",\"isDeleted\":false,\"fullName\":\"Adam R\",\"email\":\"aa@gmail.com\",\"password\":\"$2a$10$mfbjYUxcuKfdMSKM16V6Vexwk7w1JqSnCsvv18QVCoQ3LmxvvDnSe\",\"telepon\":\"\",\"roles\":[{\"id\":\"ac3939a1-34f1-4507-8a80-aeca04629d48\",\"createdAt\":[2022,7,4,10,6,6,243744000],\"createdBy\":\"anonymousUser\",\"updatedAt\":null,\"updatedBy\":null,\"isDeleted\":false,\"name\":\"user\",\"description\":\"-\"}],\"enabled\":true,\"authorities\":[{\"authority\":\"USER\"}],\"username\":\"aa@gmail.com\",\"accountNonExpired\":true,\"accountNonLocked\":true,\"credentialsNonExpired\":true}]},{\"id\":\"bc2318c3-5cda-4689-858f-1f16cf65d243\",\"createdAt\":[2022,7,6,14,11,9,566553000],\"createdBy\":\"sals@gmail.com\",\"updatedAt\":null,\"updatedBy\":null,\"isDeleted\":false,\"name\":\"Trial 2\",\"room\":\"\",\"reportUrl\":null,\"code\":\"b467b7237e\",\"status\":\"ACTIVE\",\"users\":[{\"id\":\"bc519b27-fb48-48c4-888b-46e48235b9fe\",\"createdAt\":[2022,7,6,6,34,46,262417000],\"createdBy\":\"anonymousUser\",\"updatedAt\":null,\"updatedBy\":null,\"isDeleted\":false,\"fullName\":\"sal\",\"email\":\"sals@gmail.com\",\"password\":\"$2a$10$yvv6nXDVhOnazXnBtbTSZOd0rKwzuyhwOLS69cxyidXMuWzsBaN4C\",\"telepon\":\"\",\"roles\":[{\"id\":\"ac3939a1-34f1-4507-8a80-aeca04629d48\",\"createdAt\":[2022,7,4,10,6,6,243744000],\"createdBy\":\"anonymousUser\",\"updatedAt\":null,\"updatedBy\":null,\"isDeleted\":false,\"name\":\"user\",\"description\":\"-\"}],\"enabled\":true,\"authorities\":[{\"authority\":\"USER\"}],\"username\":\"sals@gmail.com\",\"accountNonExpired\":true,\"accountNonLocked\":true,\"credentialsNonExpired\":true}]},{\"id\":\"95c01a4a-87e6-49f3-86a7-3c4cf0e02747\",\"createdAt\":[2022,7,6,14,13,51,431898000],\"createdBy\":\"sals@gmail.com\",\"updatedAt\":null,\"updatedBy\":null,\"isDeleted\":false,\"name\":\"Class 2\",\"room\":\"\",\"reportUrl\":null,\"code\":\"21c60e906d\",\"status\":\"ACTIVE\",\"users\":[{\"id\":\"bc519b27-fb48-48c4-888b-46e48235b9fe\",\"createdAt\":[2022,7,6,6,34,46,262417000],\"createdBy\":\"anonymousUser\",\"updatedAt\":null,\"updatedBy\":null,\"isDeleted\":false,\"fullName\":\"sal\",\"email\":\"sals@gmail.com\",\"password\":\"$2a$10$yvv6nXDVhOnazXnBtbTSZOd0rKwzuyhwOLS69cxyidXMuWzsBaN4C\",\"telepon\":\"\",\"roles\":[{\"id\":\"ac3939a1-34f1-4507-8a80-aeca04629d48\",\"createdAt\":[2022,7,4,10,6,6,243744000],\"createdBy\":\"anonymousUser\",\"updatedAt\":null,\"updatedBy\":null,\"isDeleted\":false,\"name\":\"user\",\"description\":\"-\"}],\"enabled\":true,\"authorities\":[{\"authority\":\"USER\"}],\"username\":\"sals@gmail.com\",\"accountNonExpired\":true,\"accountNonLocked\":true,\"credentialsNonExpired\":true}]},{\"id\":\"92ad902c-6307-452c-b79c-d0043c80d8d9\",\"createdAt\":[2022,7,6,14,23,29,627170000],\"createdBy\":\"ferri@gmailcom\",\"updatedAt\":null,\"updatedBy\":null,\"isDeleted\":false,\"name\":\"Kelas Baru\",\"room\":\"\",\"reportUrl\":null,\"code\":\"e92883ae8b\",\"status\":\"ACTIVE\",\"users\":[{\"id\":\"a4925049-03d2-4eb2-a9df-6e227ac56c73\",\"createdAt\":[2022,7,4,12,14,55,770961000],\"createdBy\":\"anonymousUser\",\"updatedAt\":null,\"updatedBy\":null,\"isDeleted\":false,\"fullName\":\"Ferri\",\"email\":\"ferri@gmailcom\",\"password\":\"$2a$10$1FRfgkmV0OGsWwDOTQZfjOvccYkvUNueCo5VKLKafhxCn8T9DUsdW\",\"telepon\":\"\",\"roles\":[{\"id\":\"ac3939a1-34f1-4507-8a80-aeca04629d48\",\"createdAt\":[2022,7,4,10,6,6,243744000],\"createdBy\":\"anonymousUser\",\"updatedAt\":null,\"updatedBy\":null,\"isDeleted\":false,\"name\":\"user\",\"description\":\"-\"}],\"enabled\":true,\"authorities\":[{\"authority\":\"USER\"}],\"username\":\"ferri@gmailcom\",\"accountNonExpired\":true,\"accountNonLocked\":true,\"credentialsNonExpired\":true}]},{\"id\":\"832e8dd1-9d1c-4932-b522-5dbd2a57ed6c\",\"createdAt\":[2022,7,8,14,8,46,693651000],\"createdBy\":\"irdhaislakhuafa@gmail.com\",\"updatedAt\":[2022,7,13,20,13,57,390885000],\"updatedBy\":\"irdhaislakhuafa@gmail.com\",\"isDeleted\":false,\"name\":\"Kelas 1 A\",\"room\":\"\",\"reportUrl\":null,\"code\":\"052f0c5b64\",\"status\":\"ACTIVE\",\"users\":[{\"id\":\"38ff5b8f-59a4-45b8-8011-8b58612009aa\",\"createdAt\":[2022,7,4,10,6,6,280798000],\"createdBy\":\"anonymousUser\",\"updatedAt\":null,\"updatedBy\":null,\"isDeleted\":false,\"fullName\":\"Irda Islakhu Afa\",\"email\":\"irdhaislakhuafa@gmail.com\",\"password\":\"$2a$10$8UFTokCCkN5rexeHA9DTNuzAS1XmfbKlT1t2USxxoNy6VwbCLoeqm\",\"telepon\":\"\",\"roles\":[{\"id\":\"ac3939a1-34f1-4507-8a80-aeca04629d48\",\"createdAt\":[2022,7,4,10,6,6,243744000],\"createdBy\":\"anonymousUser\",\"updatedAt\":null,\"updatedBy\":null,\"isDeleted\":false,\"name\":\"user\",\"description\":\"-\"}],\"enabled\":true,\"authorities\":[{\"authority\":\"USER\"}],\"username\":\"irdhaislakhuafa@gmail.com\",\"accountNonExpired\":true,\"accountNonLocked\":true,\"credentialsNonExpired\":true},{\"id\":\"219903cb-1887-427a-a88b-e21da7d0ce77\",\"createdAt\":[2022,7,8,14,9,34,704593000],\"createdBy\":\"anonymousUser\",\"updatedAt\":null,\"updatedBy\":null,\"isDeleted\":false,\"fullName\":\"aku\",\"email\":\"aku@gmail.com\",\"password\":\"$2a$10$xx3bQ5qK0OYTwsILavmwS.33lc8opoD9vfD5gNS1IfF7cB/2Yhq8m\",\"telepon\":\"\",\"roles\":[{\"id\":\"ac3939a1-34f1-4507-8a80-aeca04629d48\",\"createdAt\":[2022,7,4,10,6,6,243744000],\"createdBy\":\"anonymousUser\",\"updatedAt\":null,\"updatedBy\":null,\"isDeleted\":false,\"name\":\"user\",\"description\":\"-\"}],\"enabled\":true,\"authorities\":[{\"authority\":\"USER\"}],\"username\":\"aku@gmail.com\",\"accountNonExpired\":true,\"accountNonLocked\":true,\"credentialsNonExpired\":true}]},{\"id\":\"195ae3b9-187f-4f70-9886-d9abf2115769\",\"createdAt\":[2022,7,8,12,42,34,776337000],\"createdBy\":\"baru@gmail.com\",\"updatedAt\":[2022,7,8,14,10,31,737992000],\"updatedBy\":\"anakbaik@gmail.com\",\"isDeleted\":false,\"name\":\"Kelas Percobaan\",\"room\":\"\",\"reportUrl\":null,\"code\":\"22bbeb4e40\",\"status\":\"ACTIVE\",\"users\":[{\"id\":\"227957ee-ed7c-4007-818b-6865d460e2bb\",\"createdAt\":[2022,7,8,12,41,42,266786000],\"createdBy\":\"anonymousUser\",\"updatedAt\":[2022,7,8,12,46,32,868682000],\"updatedBy\":\"baru@gmail.com\",\"isDeleted\":false,\"fullName\":\"Tamvan dan verani\",\"email\":\"baru@gmail.com\",\"password\":\"$2a$10$EcAK6xu.r/IUdnSQV.qgA.yN6EEakc2jEvHR231bqKxHswtOCXlHO\",\"telepon\":\"12345678\",\"roles\":[{\"id\":\"ac3939a1-34f1-4507-8a80-aeca04629d48\",\"createdAt\":[2022,7,4,10,6,6,243744000],\"createdBy\":\"anonymousUser\",\"updatedAt\":null,\"updatedBy\":null,\"isDeleted\":false,\"name\":\"user\",\"description\":\"-\"}],\"enabled\":true,\"authorities\":[{\"authority\":\"USER\"}],\"username\":\"baru@gmail.com\",\"accountNonExpired\":true,\"accountNonLocked\":true,\"credentialsNonExpired\":true},{\"id\":\"63037f52-752f-467a-81d8-59ed275bfc4e\",\"createdAt\":[2022,7,6,15,32,46,387538000],\"createdBy\":\"anonymousUser\",\"updatedAt\":[2022,7,15,0,22,10,475170000],\"updatedBy\":\"zz@gmail.com\",\"isDeleted\":false,\"fullName\":\"Adam R\",\"email\":\"aa@gmail.com\",\"password\":\"$2a$10$mfbjYUxcuKfdMSKM16V6Vexwk7w1JqSnCsvv18QVCoQ3LmxvvDnSe\",\"telepon\":\"\",\"roles\":[{\"id\":\"ac3939a1-34f1-4507-8a80-aeca04629d48\",\"createdAt\":[2022,7,4,10,6,6,243744000],\"createdBy\":\"anonymousUser\",\"updatedAt\":null,\"updatedBy\":null,\"isDeleted\":false,\"name\":\"user\",\"description\":\"-\"}],\"enabled\":true,\"authorities\":[{\"authority\":\"USER\"}],\"username\":\"aa@gmail.com\",\"accountNonExpired\":true,\"accountNonLocked\":true,\"credentialsNonExpired\":true},{\"id\":\"aa0d83b3-9c0a-44f3-bac9-0e22fd5203c0\",\"createdAt\":[2022,7,5,3,24,31,998941000],\"createdBy\":\"anonymousUser\",\"updatedAt\":[2022,7,15,12,48,8,238325000],\"updatedBy\":\"anakbaik@gmail.com\",\"isDeleted\":false,\"fullName\":\"Ferri\",\"email\":\"anakbaik@gmail.com\",\"password\":\"$2a$10$RxhDnNPlVYjIcvHZsKtpoeoGV3uHwkhKft9WazkQcwDvrI.4HRD/6\",\"telepon\":\"081234567812\",\"roles\":[{\"id\":\"ac3939a1-34f1-4507-8a80-aeca04629d48\",\"createdAt\":[2022,7,4,10,6,6,243744000],\"createdBy\":\"anonymousUser\",\"updatedAt\":null,\"updatedBy\":null,\"isDeleted\":false,\"name\":\"user\",\"description\":\"-\"}],\"enabled\":true,\"authorities\":[{\"authority\":\"USER\"}],\"username\":\"anakbaik@gmail.com\",\"accountNonExpired\":true,\"accountNonLocked\":true,\"credentialsNonExpired\":true}]},{\"id\":\"eb92fc03-56bd-413f-870e-d442c7f00d39\",\"createdAt\":[2022,7,7,8,58,31,603106000],\"createdBy\":\"username@gmail.com\",\"updatedAt\":null,\"updatedBy\":null,\"isDeleted\":false,\"name\":\"Class1\",\"room\":\"\",\"reportUrl\":null,\"code\":\"8e4e65ce29\",\"status\":\"ACTIVE\",\"users\":[{\"id\":\"6f0b96a8-e80a-43aa-95b2-877e12f9f5e2\",\"createdAt\":[2022,7,7,8,50,7,607231000],\"createdBy\":\"anonymousUser\",\"updatedAt\":null,\"updatedBy\":null,\"isDeleted\":false,\"fullName\":\"username23\",\"email\":\"username@gmail.com\",\"password\":\"$2a$10$eMD8IQCF/DwwkoCtStxnSu9kAKEKpC5xljSCwEfg78orSnkZO0H4G\",\"telepon\":\"\",\"roles\":[{\"id\":\"ac3939a1-34f1-4507-8a80-aeca04629d48\",\"createdAt\":[2022,7,4,10,6,6,243744000],\"createdBy\":\"anonymousUser\",\"updatedAt\":null,\"updatedBy\":null,\"isDeleted\":false,\"name\":\"user\",\"description\":\"-\"}],\"enabled\":true,\"authorities\":[{\"authority\":\"USER\"}],\"username\":\"username@gmail.com\",\"accountNonExpired\":true,\"accountNonLocked\":true,\"credentialsNonExpired\":true}]},{\"id\":\"16ca0f9c-7d50-45bc-a85d-74189f2fda2b\",\"createdAt\":[2022,7,4,10,17,20,87432000],\"createdBy\":\"irdhaislakhuafa@gmail.com\",\"updatedAt\":[2022,7,9,6,47,41,351504000],\"updatedBy\":\"aa@gmail.com\",\"isDeleted\":false,\"name\":\"My Class\",\"room\":\"Ruang Tamu\",\"reportUrl\":null,\"code\":\"d38cfeb547\",\"status\":\"ACTIVE\",\"users\":[{\"id\":\"38ff5b8f-59a4-45b8-8011-8b58612009aa\",\"createdAt\":[2022,7,4,10,6,6,280798000],\"createdBy\":\"anonymousUser\",\"updatedAt\":null,\"updatedBy\":null,\"isDeleted\":false,\"fullName\":\"Irda Islakhu Afa\",\"email\":\"irdhaislakhuafa@gmail.com\",\"password\":\"$2a$10$8UFTokCCkN5rexeHA9DTNuzAS1XmfbKlT1t2USxxoNy6VwbCLoeqm\",\"telepon\":\"\",\"roles\":[{\"id\":\"ac3939a1-34f1-4507-8a80-aeca04629d48\",\"createdAt\":[2022,7,4,10,6,6,243744000],\"createdBy\":\"anonymousUser\",\"updatedAt\":null,\"updatedBy\":null,\"isDeleted\":false,\"name\":\"user\",\"description\":\"-\"}],\"enabled\":true,\"authorities\":[{\"authority\":\"USER\"}],\"username\":\"irdhaislakhuafa@gmail.com\",\"accountNonExpired\":true,\"accountNonLocked\":true,\"credentialsNonExpired\":true},{\"id\":\"4e1c98ea-ae75-4ece-a6ac-c697b38673b2\",\"createdAt\":[2022,7,4,11,51,8,895342000],\"createdBy\":\"anonymousUser\",\"updatedAt\":null,\"updatedBy\":null,\"isDeleted\":false,\"fullName\":\"Yardan\",\"email\":\"dan@gmail.com\",\"password\":\"$2a$10$SVnSMpbiIbLxUI4keLXPteGYbsJxLqChMDUKMcbBJ76zN2zTSn2ea\",\"telepon\":\"\",\"roles\":[{\"id\":\"ac3939a1-34f1-4507-8a80-aeca04629d48\",\"createdAt\":[2022,7,4,10,6,6,243744000],\"createdBy\":\"anonymousUser\",\"updatedAt\":null,\"updatedBy\":null,\"isDeleted\":false,\"name\":\"user\",\"description\":\"-\"}],\"enabled\":true,\"authorities\":[{\"authority\":\"USER\"}],\"username\":\"dan@gmail.com\",\"accountNonExpired\":true,\"accountNonLocked\":true,\"credentialsNonExpired\":true},{\"id\":\"63037f52-752f-467a-81d8-59ed275bfc4e\",\"createdAt\":[2022,7,6,15,32,46,387538000],\"createdBy\":\"anonymousUser\",\"updatedAt\":[2022,7,15,0,22,10,475170000],\"updatedBy\":\"zz@gmail.com\",\"isDeleted\":false,\"fullName\":\"Adam R\",\"email\":\"aa@gmail.com\",\"password\":\"$2a$10$mfbjYUxcuKfdMSKM16V6Vexwk7w1JqSnCsvv18QVCoQ3LmxvvDnSe\",\"telepon\":\"\",\"roles\":[{\"id\":\"ac3939a1-34f1-4507-8a80-aeca04629d48\",\"createdAt\":[2022,7,4,10,6,6,243744000],\"createdBy\":\"anonymousUser\",\"updatedAt\":null,\"updatedBy\":null,\"isDeleted\":false,\"name\":\"user\",\"description\":\"-\"}],\"enabled\":true,\"authorities\":[{\"authority\":\"USER\"}],\"username\":\"aa@gmail.com\",\"accountNonExpired\":true,\"accountNonLocked\":true,\"credentialsNonExpired\":true}]},{\"id\":\"4deae74f-ad14-4899-b354-03f7766a4047\",\"createdAt\":[2022,7,9,9,30,54,8106000],\"createdBy\":\"sals@gmail.com\",\"updatedAt\":[2022,7,9,9,33,3,166465000],\"updatedBy\":\"pp@gmail.com\",\"isDeleted\":false,\"name\":\"Class - 03\",\"room\":\"\",\"reportUrl\":null,\"code\":\"afa3032d15\",\"status\":\"ACTIVE\",\"users\":[{\"id\":\"bc519b27-fb48-48c4-888b-46e48235b9fe\",\"createdAt\":[2022,7,6,6,34,46,262417000],\"createdBy\":\"anonymousUser\",\"updatedAt\":null,\"updatedBy\":null,\"isDeleted\":false,\"fullName\":\"sal\",\"email\":\"sals@gmail.com\",\"password\":\"$2a$10$yvv6nXDVhOnazXnBtbTSZOd0rKwzuyhwOLS69cxyidXMuWzsBaN4C\",\"telepon\":\"\",\"roles\":[{\"id\":\"ac3939a1-34f1-4507-8a80-aeca04629d48\",\"createdAt\":[2022,7,4,10,6,6,243744000],\"createdBy\":\"anonymousUser\",\"updatedAt\":null,\"updatedBy\":null,\"isDeleted\":false,\"name\":\"user\",\"description\":\"-\"}],\"enabled\":true,\"authorities\":[{\"authority\":\"USER\"}],\"username\":\"sals@gmail.com\",\"accountNonExpired\":true,\"accountNonLocked\":true,\"credentialsNonExpired\":true},{\"id\":\"9518b2e5-a285-4a3f-9c64-b0a92822f350\",\"createdAt\":[2022,7,9,9,17,41,778006000],\"createdBy\":\"anonymousUser\",\"updatedAt\":null,\"updatedBy\":null,\"isDeleted\":false,\"fullName\":\"Rama\",\"email\":\"pp@gmail.com\",\"password\":\"$2a$10$gXGhJdKcC8.WJrvYvhhRr.IKjHT2avrrqNsCehiXS4bN9O6i8xYJm\",\"telepon\":\"\",\"roles\":[{\"id\":\"ac3939a1-34f1-4507-8a80-aeca04629d48\",\"createdAt\":[2022,7,4,10,6,6,243744000],\"createdBy\":\"anonymousUser\",\"updatedAt\":null,\"updatedBy\":null,\"isDeleted\":false,\"name\":\"user\",\"description\":\"-\"}],\"enabled\":true,\"authorities\":[{\"authority\":\"USER\"}],\"username\":\"pp@gmail.com\",\"accountNonExpired\":true,\"accountNonLocked\":true,\"credentialsNonExpired\":true}]}],\"page\":1,\"size\":10,\"totalPage\":7,\"totalSize\":64}}",
          "comment" : ""
        },
        "redirectURL" : "",
        "headersSize" : 360,
        "bodySize" : -1,
        "comment" : ""
      },
      "cache" : { },
      "timings" : {
        "comment" : "",
        "receive" : 0,
        "wait" : 0,
        "send" : 0,
        "blocked" : -1,
        "connect" : 0,
        "dns" : -1,
        "ssl" : -1
      },
      "comment" : "",
      "_katalonRequestInformation" : {
        "name" : "49",
        "testObjectId" : "Object Repository/01_API/02_Class/SC012_Get All Class by Page and Size/TC001_Get All Class by Page and Size",
        "harId" : "31f0de87-0199-47cb-b0bf-4b945c68befc",
        "reportFolder" : null
      },
      "time" : 0
    } ],
    "comment" : ""
  }
}